Genotype by Environment Interaction Effects — ge_effects • stability
…
    Examples

data(ge_data)
Yield.Effects <-
              ge_effects(
                .data  = ge_data
               , .y    = Yield
               , .gen  = Gen
               , .env  = Env
               )
names(Yield.Effects)
#> [1] "ge_means"    "ge_effects"  "gge_effects"

Yield.Effects$ge_means
#> # A tibble: 60 × 12
#> # Groups:   Gen [60]
#>    Gen       FSD  FSDR Okara Sargodha Gujranwala KotNaina   KSK Khanewal Sahiwal
#>    <fct>   <dbl> <dbl> <dbl>    <dbl>      <dbl>    <dbl> <dbl>    <dbl>   <dbl>
#>  1 013BT0… 4816  4524. 4048.    4508       3896.    3285  3717     5038.   4772 
#>  2 122557  4880. 4156. 2984.    4754       4292.    4092  3124.    4971    4758.
#>  3 122559  4135  4136  4377     4688.      4425     3744. 3011     5012.   5322.
#>  4 12B.25… 5899  4038. 3842.    5766       4716.    4084. 3074     4851    4659 
#>  5 12FJ26  4518  4348  3041     4022.      3942.    4094. 4202     4908.   4206.
#>  6 14B.10… 4070. 3834. 3606.    5075       3225     3992  3222.    4770    4535 
#>  7 14C036  3660. 4018. 2951     3980.      4693     3508. 3566.    4918.   4165 
#>  8 14C040  5011  4152. 3313     3895       3764.    2884. 3566     4392.   3968 
#>  9 9496    4589  3716  3781     4142.      4358.    3927  2948.    4995    4688.
#> 10 AUR0809 4966. 3782. 3850     4054       3984.    3505  2684     4448.   4324.
#> # ℹ 50 more rows
#> # ℹ 2 more variables: Bhakkar <dbl>, Bahawalnagar <dbl>
…
