Stability Kang Function — stab_kang • stability
…
    Examples

data(ge_data)
YieldKang <-
     stab_kang(
            .data = ge_data
          , .y    = Yield
          , .rep  = Rep
          , .gen  = Gen
          , .env  = Env
      )
YieldKang
#> $Kang
#> # A tibble: 60 × 6
#>    Gen       Mean ShuklaVar rMean rShukaVar rStab
#>    <fct>    <dbl>     <dbl> <int>     <int> <int>
#>  1 013BT034 4248.    94993.    11         8    19
#>  2 122557   4062.   117014.    31        15    46
#>  3 122559   4259.   183294.    10        38    48
#>  4 12B.2511 4414.   255150.     4        52    56
#>  5 12FJ26   4057.   159191.    32        29    61
#>  6 14B.1030 3995.   135368.    37        22    59
#>  7 14C036   3943.   260565.    41        54    95
#>  8 14C040   3825.   148448.    53        27    80
#>  9 9496     4072.    99597.    30         9    39
#> 10 AUR0809  3792.   124782.    54        20    74
#> # ℹ 50 more rows
…
