Modified Additive Main Effects and Multiplicative Interacion Stability Value — stab_masv • stability
…
    Examples

data(ge_data)
YieldMASV <-
     stab_masv(
            .data = ge_data
          , .y    = Yield
          , .rep  = Rep
          , .gen  = Gen
          , .env  = Env
          , .m    = 2
      )
YieldMASV
#> $MASD
#> # A tibble: 60 × 6
#>    Gen       Mean  MASD rMean rMASD  MYSI
#>    <fct>    <dbl> <dbl> <int> <int> <int>
#>  1 013BT034 4248.  466.    11    18    29
#>  2 122557   4062.  680.    31    28    59
#>  3 122559   4259.  665.    10    27    37
#>  4 12B.2511 4414. 1361.     4    59    63
#>  5 12FJ26   4057.  584.    32    22    54
#>  6 14B.1030 3995.  832.    37    39    76
#>  7 14C036   3943.  814.    41    37    78
#>  8 14C040   3825.  897.    53    42    95
#>  9 9496     4072.  318.    30    10    40
#> 10 AUR0809  3792.  801.    54    36    90
#> # ℹ 50 more rows
…
